…
``` r
In %>%
  group_by(id) %>%
  distinct(area, .keep_all = TRUE) %>%
  summarise(n = n()) %>%
 ungroup() %>%
  count(n)
```

    ## # A tibble: 33 x 2
    ##        n    nn
    ##    <int> <int>
    ##  1     1 10142
    ##  2     2  2281
    ##  3     3   523
    ##  4     4   170
    ##  5     5    49
    ##  6     6    15
    ##  7     7    13
    ##  8     8     2
    ##  9     9     3
    ## 10    10     4
    ## # ... with 23 more rows
…
